"0","#| echo: false"
"0","#| label: tbl-date"
"0","#| tbl-cap: Modifier et ajouter les dates au jeu de données"
"0","#| tbl-subcap: "
"0","#| - ""Extrait des colonnes de datation"""
"0","#| - ""Ajout des colonnes dans la table objet"""
"0","#| layout-ncol: 2"
"0",""
"0","kable(head(date3[15:20,])) %>%"
"0","  kableExtra::kable_paper(font_size = 12, full_width = F)"
