"0","#| echo: false"
"0","#| label: tbl-date1"
"0","#| tbl-cap: Les datations dans les données sources"
"0",""
"0","kable(head(n_objet[,11])) %>%"
"0","  kableExtra::kable_paper(font_size = 12, full_width = F)"
