"0","#| echo: false"
"0","#| label: fig-coord"
"0","#| fig-cap: Ajouter les bonnes colonnes de coordonnées dans la table `objets`"
"0","kable(head(n_objet[1:3,])) %>%"
"0","  kableExtra::kable_paper(font_size = 12, full_width = F) %>%"
"0","  scroll_box(width = ""100%"")"
