"0","#| label: fig-chrono"
"0","#| fig-cap: Extrait de la chronologie utilisée dans ArkeoGIS pour l'Europe continentale"
"0","#| echo: false"
"0","#| "
"0","chrono <- read.csv2(""data/Chrono.csv"", sep = "";"", encoding = ""UTF-8"")"
"0",""
"0","kable(head(chrono[38:46,])) %>%"
"0","  kableExtra::kable_paper(font_size = 12, full_width = F) %>%"
"0","  scroll_box(width = ""100%"")"
