"0","#| label: Supprimer les colonnes H.ID"
"0",""
"0","# Supprimer les colonnes inutiles avec une expressions régulières"
"0",""
"0","n_objet <- as.data.frame(objets[,-grep("".*ID$"", colnames(objets))])"
