"0","#| tbl-cap: Ajout du thésaurus ArkeoGIS dans la table [Sites_prod]{style=""color:GoldenRod""}"
"2","Warning messages:
"
"2","1: "
"2","In value[[3L]](cond) :"
"2"," Failed to parse chunk options in body:
Error in parse(text = code, keep.source = FALSE): <text>:1:23: unexpected symbol
1: alist( tbl-cap: Ajout du
                          ^

"
"2","2: "
"2","In opts$engine <- unlist(strsplit(rmdChunkOpts, split = ""(\\s|,)+""))[[1]] :"
"2","
 "
"2"," Coercing LHS to a list
"
"0","#| label: tbl-carac_prod4"
"0","#| echo: false"
"0",""
"0","Sites_prod <- Sites_prod[order(Sites_prod$SITE_SOURCE_ID), ]"
"0",""
"0","kable(head(Sites_prod)) %>%"
"0","  kableExtra::kable_paper(font_size = 12, full_width = F) %>%"
"0","  scroll_box(width = ""100%"")"
