"0","# Fusionner le thésaurus plus complexe (`IDS2`) avec le jeu de données"
"0","n_objet2 <- droplevels(merge(n_objet, categorie[,c(1,3)], by=""catégorie.objet""))"
"0","IDS2 <- droplevels(merge(IDS2, n_objet2, by=c(""CARAC_LVL1"", ""catégorie.objet"", ""Niv0"")))"
"0","IDS2 <- IDS2[,c(""Unique.public.identifier"", colnames(arkeoGIS))]"
"0",""
"0","# Supprimer les duplicatas"
"0",""
"0","IDS2 <- IDS2[!duplicated(IDS2),]"
"0",""
