"0","#| echo: false"
"0","#| label: tbl-site_prod2"
"0","#| tbl-cap: Extraction des sites pour lesquels l'information production est présente"
"0",""
"0","kable(head(Sites_prod)) %>%"
"0","  kableExtra::kable_paper(font_size = 12, full_width = F) %>%"
"0","  scroll_box(width = ""100%"")"
