"0","# Récupérer les occurrences uniques de chaque site"
"0",""
"0","Sites_prod <- distinct(total, SITE_SOURCE_ID, .keep_all = TRUE)"
"0",""
"0","# Supprimer les colonnes qui seront remplacées"
"0",""
"0","Sites_prod <- Sites_prod[,c(1:11, 21)]"
"0",""
"0","# Effacer le contenu de la colonne COMMENTS"
"0",""
"0","Sites_prod[,12] <- NA"
"0",""
