"0","#| tbl-cap: La table `sites2`après séparation des valeurs multiples"
"0","#| label: tbl-carac_immo2"
"0","#| echo: false"
"0",""
"0","kable(head(sites2[70:77,])) %>%"
"0","  kableExtra::kable_paper(font_size = 12, full_width = F) %>%"
"0","  scroll_box(width = ""100%"")"
