"0","# Assembler les différentes colonnes dans une nouvelle colonne COMMENTS "
"0","# en précisant la fonction de chaque élément"
"0",""
"0","n_objet$COMMENTS <- paste0(""OBJET : "", n_objet$catégorie.objet, "
"0","                           "". MATERIAU : "", n_objet$Materiaux, "
"0","                           "". TYPO : "", n_objet$rec_Title, ""."")"
"0",""
