"0","#| tbl-cap: Extrait du thésaurus pour décrire la production dans ArkeoGIS"
"0","#| label: tbl-prod"
"0","#| echo: false"
"0",""
"0","kable(head(prod)) %>%"
"0","  kableExtra::kable_paper(font_size = 12, full_width = F)"
