"0","#| echo: false"
"0","#| tbl-cap: Répartition des catégories d'objets en fonction des matériaux (CARAC_LVL1)"
"0","#| label: tbl-cat_mat"
"0",""
"0","kable(table(n_objet$catégorie.objet, n_objet$CARAC_LVL1)) %>%"
"0","  kableExtra::kable_paper(font_size = 12, full_width = F)"
