"0",""
"0","# Ajouter les colonnes de dates et bibliographie dans la table `Sites_prod`"
"0",""
"0","Sites_prod <- droplevels(merge(Sites_prod, sites[,c(1,6,7:10)], by = ""SITE_SOURCE_ID""))"
"0",""
"0","# Renommer la colonne bibliographie pour correspondre à ArkeoGIS"
"0",""
"0","colnames(Sites_prod)[13] <- colnames(arkeoGIS[20])"
"0",""
